\relax 
\providecommand\hyper@newdestlabel[2]{}
\bibstyle{apalike}
\providecommand\HyperFirstAtBeginDocument{\AtBeginDocument}
\HyperFirstAtBeginDocument{\ifx\hyper@anchor\@undefined
\global\let\oldcontentsline\contentsline
\gdef\contentsline#1#2#3#4{\oldcontentsline{#1}{#2}{#3}}
\global\let\oldnewlabel\newlabel
\gdef\newlabel#1#2{\newlabelxx{#1}#2}
\gdef\newlabelxx#1#2#3#4#5#6{\oldnewlabel{#1}{{#2}{#3}}}
\AtEndDocument{\ifx\hyper@anchor\@undefined
\let\contentsline\oldcontentsline
\let\newlabel\oldnewlabel
\fi}
\fi}
\global\let\hyper@last\relax 
\gdef\HyperFirstAtBeginDocument#1{#1}
\providecommand\HyField@AuxAddToFields[1]{}
\providecommand\HyField@AuxAddToCoFields[2]{}
\citation{steph14}
\citation{steph14}
\citation{md1}
\citation{md1}
\@writefile{toc}{\contentsline {section}{\numberline {1}Introduction: What is Molecular Docking and Why is it Useful?}{1}{section.1}}
\citation{md9}
\citation{md2}
\citation{4209194}
\@writefile{toc}{\contentsline {section}{\numberline {2}Related Work}{2}{section.2}}
\@writefile{toc}{\contentsline {subsection}{\numberline {2.1}Molecular Docking Techniques}{2}{subsection.2.1}}
\@writefile{toc}{\contentsline {subsubsection}{\numberline {2.1.1}Automatic}{2}{subsubsection.2.1.1}}
\@writefile{toc}{\contentsline {subsubsection}{\numberline {2.1.2}Interactive}{2}{subsubsection.2.1.2}}
\citation{md10}
\citation{md9}
\citation{4209194}
\citation{md2}
\citation{steph14}
\citation{md9}
\citation{md5}
\citation{md3}
\citation{md5}
\citation{pdbfile}
\citation{md9}
\citation{md4}
\citation{md5}
\@writefile{toc}{\contentsline {subsubsection}{\numberline {2.1.3}Additional Techniques}{3}{subsubsection.2.1.3}}
\citation{massie1994phantom}
\@writefile{toc}{\contentsline {subsection}{\numberline {2.2}Haptic Devices and Technology}{4}{subsection.2.2}}
\@writefile{toc}{\contentsline {subsubsection}{\numberline {2.2.1}The PHANTOM Haptic Feedback Device}{4}{subsubsection.2.2.1}}
\citation{4535654}
\citation{4535654}
\citation{4535654}
\citation{4145230}
\citation{steph14}
\citation{4209194}
\citation{4398987}
\citation{5458203}
\citation{1506820}
\citation{sjostrom2001designing}
\citation{4696954}
\citation{1391874}
\@writefile{toc}{\contentsline {subsubsection}{\numberline {2.2.2}Uses of Haptics and Haptic Devices}{6}{subsubsection.2.2.2}}
\@writefile{toc}{\contentsline {paragraph}{\nonumberline Scientific Research}{6}{section*.5}}
\@writefile{toc}{\contentsline {paragraph}{\nonumberline Overcoming Disabilities}{6}{section*.6}}
\citation{4161020}
\citation{5430108}
\citation{pripp07}
\citation{trott10}
\citation{trott10}
\citation{trott10}
\@writefile{toc}{\contentsline {paragraph}{\nonumberline Education and Training}{7}{section*.7}}
\@writefile{toc}{\contentsline {subsection}{\numberline {2.3}Existing Software with Focus on Usability}{7}{subsection.2.3}}
\citation{md3}
\citation{kokalj03}
\citation{pettersen04}
\citation{seeliger10}
\citation{kokalj03}
\citation{pettersen04}
\citation{pettersen04}
\citation{seeliger10}
\citation{brooks90}
\citation{stone01}
\citation{sankaranarayanan03}
\citation{sankaranarayanan03}
\citation{steph14}
\citation{steph14}
\citation{turk1989interactive}
\@writefile{toc}{\contentsline {subsection}{\numberline {2.4}Collision Detection Methods}{10}{subsection.2.4}}
\@writefile{toc}{\contentsline {subsubsection}{\numberline {2.4.1}Sphere Collisions}{10}{subsubsection.2.4.1}}
\newlabel{sec:sphere collisions}{{2.4.1}{10}{Sphere Collisions}{subsubsection.2.4.1}{}}
\citation{thibault1987set}
\citation{kay1986ray}
\citation{cohen1994proximity}
\citation{samet1990applications}
\@writefile{toc}{\contentsline {subsubsection}{\numberline {2.4.2}Spatial Partitioning}{11}{subsubsection.2.4.2}}
\newlabel{sec:spatial partitioning}{{2.4.2}{11}{Spatial Partitioning}{subsubsection.2.4.2}{}}
\@writefile{toc}{\contentsline {paragraph}{\nonumberline Regular Grids}{11}{section*.8}}
\@writefile{toc}{\contentsline {paragraph}{\nonumberline Octrees}{11}{section*.9}}
\citation{turk1989interactive}
\citation{turk1989interactive}
\citation{steinbach1994new}
\citation{turk1989interactive}
\citation{lee2004smoothing}
\@writefile{toc}{\contentsline {subsection}{\numberline {2.5}Collision Response}{12}{subsection.2.5}}
\@writefile{toc}{\contentsline {section}{\numberline {3}Design and Scope of the Project}{13}{section.3}}
\@writefile{toc}{\contentsline {section}{\numberline {4}Program Design}{14}{section.4}}
\newlabel{sec:progDesign}{{4}{14}{Program Design}{section.4}{}}
\@writefile{toc}{\contentsline {subsection}{\numberline {4.1}Window Structure}{14}{subsection.4.1}}
\newlabel{subsec:WindStruc}{{4.1}{14}{Window Structure}{subsection.4.1}{}}
\citation{pdbfile}
\citation{steph14}
\@writefile{toc}{\contentsline {section}{\numberline {5}Protein Viewing}{15}{section.5}}
\@writefile{toc}{\contentsline {subsection}{\numberline {5.1}Protein Loading}{15}{subsection.5.1}}
\@writefile{toc}{\contentsline {subsection}{\numberline {5.2}Protein Rendering}{15}{subsection.5.2}}
\newlabel{sec:protRendering}{{5.2}{15}{Protein Rendering}{subsection.5.2}{}}
\@writefile{toc}{\contentsline {subsubsection}{\numberline {5.2.1}Sphere-rendering Techniques}{16}{subsubsection.5.2.1}}
\newlabel{sec:sphereRend}{{5.2.1}{16}{Sphere-rendering Techniques}{subsubsection.5.2.1}{}}
\@writefile{toc}{\contentsline {subsection}{\numberline {5.3}Viewing Proteins Individually}{17}{subsection.5.3}}
\@writefile{toc}{\contentsline {subsection}{\numberline {5.4}Transformation of Molecules}{17}{subsection.5.4}}
\@writefile{toc}{\contentsline {subsubsection}{\numberline {5.4.1}Projecting and Unprojecting Coordinates}{18}{subsubsection.5.4.1}}
\@writefile{toc}{\contentsline {subsubsection}{\numberline {5.4.2}Proximity of Cursor to Molecules}{18}{subsubsection.5.4.2}}
\newlabel{sec:cursorProx}{{5.4.2}{18}{Proximity of Cursor to Molecules}{subsubsection.5.4.2}{}}
\citation{grant03}
\@writefile{toc}{\contentsline {subsubsection}{\numberline {5.4.3}Translation of Molecules}{19}{subsubsection.5.4.3}}
\@writefile{toc}{\contentsline {subsubsection}{\numberline {5.4.4}Rotation of Molecules}{19}{subsubsection.5.4.4}}
\@writefile{toc}{\contentsline {subsection}{\numberline {5.5}Atom Clipping}{21}{subsection.5.5}}
\@writefile{lof}{\contentsline {figure}{\numberline {5.1}{\ignorespaces No clipping is applied to either molecule.\relax }}{22}{figure.caption.10}}
\providecommand*\caption@xref[2]{\@setref\relax\@undefined{#1}}
\newlabel{fig:noClipping}{{5.1}{22}{No clipping is applied to either molecule.\relax }{figure.caption.10}{}}
\@writefile{lof}{\contentsline {figure}{\numberline {5.2}{\ignorespaces Clipping is applied to just the right molecule. The clipping plane is roughly bisecting the molecule.\relax }}{22}{figure.caption.11}}
\newlabel{fig:rightClipping}{{5.2}{22}{Clipping is applied to just the right molecule. The clipping plane is roughly bisecting the molecule.\relax }{figure.caption.11}{}}
\@writefile{toc}{\contentsline {section}{\numberline {6}Collision Detection and Response}{23}{section.6}}
\@writefile{toc}{\contentsline {subsection}{\numberline {6.1}Collision Detection}{23}{subsection.6.1}}
\@writefile{toc}{\contentsline {subsubsection}{\numberline {6.1.1}Brute-Force Collisions}{23}{subsubsection.6.1.1}}
\newlabel{sec:bruteForceSec}{{6.1.1}{23}{Brute-Force Collisions}{subsubsection.6.1.1}{}}
\@writefile{loa}{\contentsline {algorithm}{\numberline {1}{\ignorespaces Brute-Force Collision Detection.\relax }}{24}{algorithm.1}}
\newlabel{alg:bruteForceAlg}{{1}{24}{Brute-Force Collision Detection.\relax }{algorithm.1}{}}
\@writefile{toc}{\contentsline {subsubsection}{\numberline {6.1.2}Building a 3D Regular Grid}{24}{subsubsection.6.1.2}}
\newlabel{sec:buildGrid}{{6.1.2}{24}{Building a 3D Regular Grid}{subsubsection.6.1.2}{}}
\@writefile{loa}{\contentsline {algorithm}{\numberline {2}{\ignorespaces Calculating the Position of a 3D Regular Grid\relax }}{25}{algorithm.2}}
\newlabel{alg:gridBuild}{{2}{25}{Calculating the Position of a 3D Regular Grid\relax }{algorithm.2}{}}
\@writefile{lof}{\contentsline {figure}{\numberline {6.1}{\ignorespaces An illustration of the structure of a 3D regular grid being drawn over an example molecule, with a grid depth of 10.\relax }}{26}{figure.caption.12}}
\newlabel{fig:gridDrawn}{{6.1}{26}{An illustration of the structure of a 3D regular grid being drawn over an example molecule, with a grid depth of 10.\relax }{figure.caption.12}{}}
\@writefile{loa}{\contentsline {algorithm}{\numberline {3}{\ignorespaces Calculating non-adjacent neighbour grid cells that are occupied by an atom in a pre-calculated central grid cell using flags calculated from adjacent neighbour information.\relax }}{28}{algorithm.3}}
\newlabel{alg:inferCells}{{3}{28}{Calculating non-adjacent neighbour grid cells that are occupied by an atom in a pre-calculated central grid cell using flags calculated from adjacent neighbour information.\relax }{algorithm.3}{}}
\@writefile{lof}{\contentsline {figure}{\numberline {6.2}{\ignorespaces Comparison of the efficiency of the two methods of populating a 3D regular grid discussed in Section \ref  {sec:buildGrid}, using a large molecule comprised of 7046 atoms and varying grid depths. Whilst method 1 grows impractical quickly as grid depth increases, method 2 shows minimal overhead regardless of grid depth, and is always significantly overshadowed by rendering overheads.\relax }}{29}{figure.caption.13}}
\newlabel{tab:gridPopMethods}{{6.2}{29}{Comparison of the efficiency of the two methods of populating a 3D regular grid discussed in Section \ref {sec:buildGrid}, using a large molecule comprised of 7046 atoms and varying grid depths. Whilst method 1 grows impractical quickly as grid depth increases, method 2 shows minimal overhead regardless of grid depth, and is always significantly overshadowed by rendering overheads.\relax }{figure.caption.13}{}}
\@writefile{toc}{\contentsline {subsubsection}{\numberline {6.1.3}Utilising a 3D Regular Grid to Aid Collision Detection}{29}{subsubsection.6.1.3}}
\newlabel{sec:usingGrid}{{6.1.3}{29}{Utilising a 3D Regular Grid to Aid Collision Detection}{subsubsection.6.1.3}{}}
\@writefile{toc}{\contentsline {subsection}{\numberline {6.2}Collision Response}{30}{subsection.6.2}}
\citation{steph14}
\citation{Jones24}
\@writefile{toc}{\contentsline {section}{\numberline {7}Force Calculations}{32}{section.7}}
\newlabel{sec:forceCalc}{{7}{32}{Force Calculations}{section.7}{}}
\@writefile{lof}{\contentsline {figure}{\numberline {7.1}{\ignorespaces Force calculation as described by \citet  {steph14}.\relax }}{32}{figure.caption.14}}
\newlabel{fig:force1}{{7.1}{32}{Force calculation as described by \citet {steph14}.\relax }{figure.caption.14}{}}
\@writefile{lof}{\contentsline {figure}{\numberline {7.2}{\ignorespaces L-J potential modelling the Van der Waals force.\relax }}{32}{figure.caption.15}}
\newlabel{fig:force2}{{7.2}{32}{L-J potential modelling the Van der Waals force.\relax }{figure.caption.15}{}}
\@writefile{lof}{\contentsline {figure}{\numberline {7.3}{\ignorespaces Complete force equation with the parameters used for this application.\relax }}{33}{figure.caption.16}}
\newlabel{fig:force3}{{7.3}{33}{Complete force equation with the parameters used for this application.\relax }{figure.caption.16}{}}
\@writefile{loa}{\contentsline {algorithm}{\numberline {4}{\ignorespaces Force Calculation pseudo-code.\relax }}{34}{algorithm.4}}
\newlabel{alg:forceCalc}{{4}{34}{Force Calculation pseudo-code.\relax }{algorithm.4}{}}
\@writefile{toc}{\contentsline {section}{\numberline {8}Haptics and Tactile Feedback}{36}{section.8}}
\@writefile{toc}{\contentsline {subsection}{\numberline {8.1}Haptic Control}{36}{subsection.8.1}}
\@writefile{toc}{\contentsline {subsection}{\numberline {8.2}Haptic Feedback}{37}{subsection.8.2}}
\@writefile{toc}{\contentsline {section}{\numberline {9}Additional User Interaction, Control and Feedback}{38}{section.9}}
\@writefile{toc}{\contentsline {subsection}{\numberline {9.1}Keyboard and Mouse Control}{38}{subsection.9.1}}
\newlabel{sec:keybMouseCont}{{9.1}{38}{Keyboard and Mouse Control}{subsection.9.1}{}}
\citation{md9}
\@writefile{toc}{\contentsline {subsection}{\numberline {9.2}User Feedback}{39}{subsection.9.2}}
\@writefile{toc}{\contentsline {subsubsection}{\numberline {9.2.1}Audio Feedback}{39}{subsubsection.9.2.1}}
\@writefile{toc}{\contentsline {subsubsection}{\numberline {9.2.2}The Force Viewer}{40}{subsubsection.9.2.2}}
\@writefile{toc}{\contentsline {paragraph}{\nonumberline Direct3D}{40}{section*.17}}
\@writefile{toc}{\contentsline {paragraph}{\nonumberline Showing the Correct Forces}{40}{section*.18}}
\@writefile{toc}{\contentsline {section}{\numberline {10}Graphical User Interface (GUI)}{41}{section.10}}
\newlabel{sec:GUI}{{10}{41}{Graphical User Interface (GUI)}{section.10}{}}
\@writefile{toc}{\contentsline {subsection}{\numberline {10.1}GUI Design}{41}{subsection.10.1}}
\@writefile{lof}{\contentsline {figure}{\numberline {10.1}{\ignorespaces The GUI with start-up settings/proteins and Force Viewer enabled.\relax }}{41}{figure.caption.19}}
\newlabel{fig:gui1}{{10.1}{41}{The GUI with start-up settings/proteins and Force Viewer enabled.\relax }{figure.caption.19}{}}
\@writefile{toc}{\contentsline {subsection}{\numberline {10.2}Problems with the GUI}{42}{subsection.10.2}}
\@writefile{toc}{\contentsline {subsection}{\numberline {10.3}Interaction Logic}{42}{subsection.10.3}}
\@writefile{lof}{\contentsline {figure}{\numberline {10.2}{\ignorespaces Example button interaction logic for protein 1 load button.\relax }}{43}{figure.caption.20}}
\newlabel{fig:IL-Button}{{10.2}{43}{Example button interaction logic for protein 1 load button.\relax }{figure.caption.20}{}}
\@writefile{lof}{\contentsline {figure}{\numberline {10.3}{\ignorespaces Example checkbox interaction logic for the V-Sync checkbox.\relax }}{43}{figure.caption.21}}
\newlabel{fig:IL-Checkbox}{{10.3}{43}{Example checkbox interaction logic for the V-Sync checkbox.\relax }{figure.caption.21}{}}
\@writefile{lof}{\contentsline {figure}{\numberline {10.4}{\ignorespaces Example slider interaction logic for the quality slider.\relax }}{43}{figure.caption.22}}
\newlabel{fig:IL-Slider}{{10.4}{43}{Example slider interaction logic for the quality slider.\relax }{figure.caption.22}{}}
\@writefile{toc}{\contentsline {section}{\numberline {11}Testing}{44}{section.11}}
\@writefile{toc}{\contentsline {subsection}{\numberline {11.1}Performance Testing}{44}{subsection.11.1}}
\@writefile{toc}{\contentsline {subsubsection}{\numberline {11.1.1}Performance Comparison}{44}{subsubsection.11.1.1}}
\@writefile{lof}{\contentsline {figure}{\numberline {11.1}{\ignorespaces Performance comparison showing the impact of collision detection with and without the use of a 3D regular grid in a best-case scenario (molecules not colliding), force calculations and rendering. Brute-force collisions are seen to carry the most significant overhead, which is largely mitigated by the use of the grid.\relax }}{45}{figure.caption.23}}
\newlabel{tab:perfTable}{{11.1}{45}{Performance comparison showing the impact of collision detection with and without the use of a 3D regular grid in a best-case scenario (molecules not colliding), force calculations and rendering. Brute-force collisions are seen to carry the most significant overhead, which is largely mitigated by the use of the grid.\relax }{figure.caption.23}{}}
\@writefile{toc}{\contentsline {subsubsection}{\numberline {11.1.2}Rendering Performance Testing}{45}{subsubsection.11.1.2}}
\@writefile{lof}{\contentsline {figure}{\numberline {11.2}{\ignorespaces Rendering Performance with Different Polygon Counts Per Sphere.\relax }}{46}{figure.caption.24}}
\newlabel{tab:Table2}{{11.2}{46}{Rendering Performance with Different Polygon Counts Per Sphere.\relax }{figure.caption.24}{}}
\@writefile{toc}{\contentsline {subsubsection}{\numberline {11.1.3}3D Regular Grid Performance Testing}{46}{subsubsection.11.1.3}}
\@writefile{lof}{\contentsline {figure}{\numberline {11.3}{\ignorespaces  Performance comparison of the Grid data structure.\relax }}{46}{figure.caption.25}}
\newlabel{tab:gridTable}{{11.3}{46}{Performance comparison of the Grid data structure.\relax }{figure.caption.25}{}}
\citation{steph14}
\@writefile{toc}{\contentsline {subsubsection}{\numberline {11.1.4}Attempting to Dock Molecules}{47}{subsubsection.11.1.4}}
\@writefile{lof}{\contentsline {figure}{\numberline {11.4}{\ignorespaces Two molecules which can be docked. TRYPSIN (Left) and BPTI (Right).\relax }}{47}{figure.caption.26}}
\newlabel{fig:molecules}{{11.4}{47}{Two molecules which can be docked. TRYPSIN (Left) and BPTI (Right).\relax }{figure.caption.26}{}}
\@writefile{lof}{\contentsline {figure}{\numberline {11.5}{\ignorespaces Molecule 3OTJ, the result of docking TRYPSIN and BPTI molecules.\relax }}{47}{figure.caption.27}}
\newlabel{fig:docked}{{11.5}{47}{Molecule 3OTJ, the result of docking TRYPSIN and BPTI molecules.\relax }{figure.caption.27}{}}
\citation{steph14}
\citation{steph14}
\@writefile{lof}{\contentsline {figure}{\numberline {11.6}{\ignorespaces Result of docking TRYPSIN and BPTI molecules within our application.\relax }}{48}{figure.caption.28}}
\newlabel{fig:ourDocking}{{11.6}{48}{Result of docking TRYPSIN and BPTI molecules within our application.\relax }{figure.caption.28}{}}
\@writefile{toc}{\contentsline {subsubsection}{\numberline {11.1.5}Force Calculation Testing}{48}{subsubsection.11.1.5}}
\newlabel{sec:Testing}{{11.1.5}{48}{Force Calculation Testing}{subsubsection.11.1.5}{}}
\@writefile{lof}{\contentsline {figure}{\numberline {11.7}{\ignorespaces Graph of forces acting between CH1-CH1 atoms with varying separation in Angstroms provided by Stephen Hayward \citep  {steph14}\relax }}{49}{figure.caption.29}}
\newlabel{fig:graph1}{{11.7}{49}{Graph of forces acting between CH1-CH1 atoms with varying separation in Angstroms provided by Stephen Hayward \citep {steph14}\relax }{figure.caption.29}{}}
\@writefile{lof}{\contentsline {figure}{\numberline {11.8}{\ignorespaces Graph of forces acting between CH1-CH1 atoms with varying separation in Angstroms produced by our application.\relax }}{49}{figure.caption.30}}
\newlabel{fig:graph2}{{11.8}{49}{Graph of forces acting between CH1-CH1 atoms with varying separation in Angstroms produced by our application.\relax }{figure.caption.30}{}}
\@writefile{toc}{\contentsline {subsubsection}{\numberline {11.1.6}OpenTK vs SharpGL}{50}{subsubsection.11.1.6}}
\@writefile{toc}{\contentsline {subsection}{\numberline {11.2}User Testing}{50}{subsection.11.2}}
\@writefile{toc}{\contentsline {section}{\numberline {12}Conclusions}{52}{section.12}}
\@writefile{toc}{\contentsline {section}{\numberline {13}Future Work}{53}{section.13}}
\newlabel{sec:Future}{{13}{53}{Future Work}{section.13}{}}
\@writefile{toc}{\contentsline {subsection}{\numberline {13.1}Saving and Loading Dock Sites}{53}{subsection.13.1}}
\@writefile{toc}{\contentsline {subsection}{\numberline {13.2}Rendering Performance}{54}{subsection.13.2}}
\bibdata{reportbib}
\bibcite{pdbfile}{{1}{2000}{{Berman et~al.}}{{}}}
\bibcite{4145230}{{2}{2007}{{Bidmon et~al.}}{{}}}
\bibcite{brooks90}{{3}{1990}{{Brooks~Jr et~al.}}{{}}}
\bibcite{cohen1994proximity}{{4}{1994}{{Cohen and Sheffer}}{{}}}
\bibcite{5430108}{{5}{2010}{{Coles and John}}{{}}}
\bibcite{4209194}{{6}{2007a}{{Daunay et~al.}}{{}}}
\bibcite{4398987}{{7}{2007b}{{Daunay et~al.}}{{}}}
\bibcite{md9}{{8}{2008}{{F\'{o}rey et~al.}}{{}}}
\bibcite{md1}{{9}{2002}{{Fredj}}{{}}}
\@writefile{toc}{\contentsline {section}{References}{55}{section*.31}}
\bibcite{grant03}{{10}{2003}{{Grant}}{{}}}
\bibcite{steph14}{{11}{2014}{{Iakovou et~al.}}{{}}}
\bibcite{1391874}{{12}{2004}{{Iglesias et~al.}}{{}}}
\bibcite{1506820}{{13}{2005}{{Johnson et~al.}}{{}}}
\bibcite{Jones24}{{14}{1924}{{Jones}}{{}}}
\bibcite{kay1986ray}{{15}{1986}{{Kay and Kajiya}}{{}}}
\bibcite{kokalj03}{{16}{2003}{{Kokalj}}{{}}}
\bibcite{lee2004smoothing}{{17}{2004}{{Lee and Lyons}}{{}}}
\bibcite{md10}{{18}{1997}{{Levine et~al.}}{{}}}
\bibcite{md3}{{19}{2005}{{Lu et~al.}}{{}}}
\bibcite{4535654}{{20}{2008}{{Ma et~al.}}{{}}}
\bibcite{md4}{{21}{2005}{{Maciejewski et~al.}}{{}}}
\bibcite{massie1994phantom}{{22}{1994}{{Massie and Salisbury}}{{}}}
\bibcite{4161020}{{23}{2007}{{Persson et~al.}}{{}}}
\bibcite{pettersen04}{{24}{2004}{{Pettersen et~al.}}{{}}}
\bibcite{pripp07}{{25}{2007}{{Pripp}}{{}}}
\bibcite{5458203}{{26}{2010}{{Qiu et~al.}}{{}}}
\bibcite{samet1990applications}{{27}{1990}{{Samet}}{{}}}
\bibcite{sankaranarayanan03}{{28}{2003}{{Sankaranarayanan et~al.}}{{}}}
\bibcite{seeliger10}{{29}{2010}{{Seeliger and de~Groot}}{{}}}
\bibcite{sjostrom2001designing}{{30}{2001}{{Sjostrom}}{{}}}
\bibcite{md5}{{31}{2008}{{Sourina et~al.}}{{}}}
\bibcite{steinbach1994new}{{32}{1994}{{Steinbach and Brooks}}{{}}}
\bibcite{stone01}{{33}{2001}{{Stone et~al.}}{{}}}
\bibcite{md2}{{34}{2008}{{Subasi and Basdogan}}{{}}}
\bibcite{4696954}{{35}{2008}{{Tapson et~al.}}{{}}}
\bibcite{thibault1987set}{{36}{1987}{{Thibault and Naylor}}{{}}}
\bibcite{trott10}{{37}{2010}{{Trott and Olson}}{{}}}
\bibcite{turk1989interactive}{{38}{1989}{{Turk}}{{}}}
\newlabel{fig:was:used:in:doc}{{13.2}{59}{Rendering Performance}{section*.31}{}}
