This is BibTeX, Version 0.99d (TeX Live 2013/W32TeX)
Capacity: max_strings=35307, hash_size=35307, hash_prime=30011
The top-level auxiliary file: template.aux
The style file: apalike.bst
Database file #1: reportbib.bib
A bad cross reference---entry "md9"
refers to entry "conf/3dui/2008", which doesn't exist
A bad cross reference---entry "md4"
refers to entry "conf/haptics/2005", which doesn't exist
Warning--I didn't find a database entry for "conf/haptics/2005"
Warning--I didn't find a database entry for "conf/3dui/2008"
Warning--can't use both volume and number fields in brooks90
Warning--can't use both volume and number fields in kay1986ray
Warning--empty booktitle in massie1994phantom
Warning--empty journal in samet1990applications
Warning--can't use both volume and number fields in thibault1987set
You've used 38 entries,
            1935 wiz_defined-function locations,
            697 strings with 11255 characters,
and the built_in function-call counts, 18133 in all, are:
= -- 1802
> -- 731
< -- 40
+ -- 263
- -- 250
* -- 1468
:= -- 2940
add.period$ -- 122
call.type$ -- 38
change.case$ -- 314
chr.to.int$ -- 37
cite$ -- 43
duplicate$ -- 761
empty$ -- 1292
format.name$ -- 308
if$ -- 3759
int.to.chr$ -- 2
int.to.str$ -- 0
missing$ -- 36
newline$ -- 191
num.names$ -- 114
pop$ -- 334
preamble$ -- 1
purify$ -- 315
quote$ -- 0
skip$ -- 588
stack$ -- 0
substring$ -- 1288
swap$ -- 200
text.length$ -- 22
text.prefix$ -- 0
top$ -- 0
type$ -- 228
warning$ -- 5
while$ -- 140
width$ -- 0
write$ -- 501
(There were 2 error messages)
