^\\UEAHOME4\STUSCI3\XPY10YBU\DATA\NTPROFILE\DESKTOP\HAPTICSHD SELF CONTAINED\HAPTICSHD\X64\DEBUG\DLLMETHODS.OBJ|\\UEAHOME4\STUSCI3\XPY10YBU\DATA\NTPROFILE\DESKTOP\HAPTICSHD SELF CONTAINED\HAPTICSHD\X64\DEBUG\FEMMODEL4.DLL.EMBED.MANIFEST.RES|\\UEAHOME4\STUSCI3\XPY10YBU\DATA\NTPROFILE\DESKTOP\HAPTICSHD SELF CONTAINED\HAPTICSHD\X64\DEBUG\OPENHAPTICS.OBJ
C:\PROGRAM FILES (X86)\MICROSOFT SDKS\WINDOWS\V7.0A\LIB\X64\OPENGL32.LIB
C:\PROGRAM FILES (X86)\MICROSOFT SDKS\WINDOWS\V7.0A\LIB\X64\GLU32.LIB
\\UEAHOME4\STUSCI3\XPY10YBU\DATA\NTPROFILE\DESKTOP\HAPTICSHD SELF CONTAINED\HAPTICSHD\HAPTICLIBS\GLUT32.LIB
\\UEAHOME4\STUSCI3\XPY10YBU\DATA\NTPROFILE\DESKTOP\HAPTICSHD SELF CONTAINED\HAPTICSHD\HAPTICLIBS\GLUI32.LIB
\\UEAHOME4\STUSCI3\XPY10YBU\DATA\NTPROFILE\DESKTOP\HAPTICSHD SELF CONTAINED\HAPTICSHD\HAPTICLIBS\HD.LIB
\\UEAHOME4\STUSCI3\XPY10YBU\DATA\NTPROFILE\DESKTOP\HAPTICSHD SELF CONTAINED\HAPTICSHD\HAPTICLIBS\HDU.LIB
\\UEAHOME4\STUSCI3\XPY10YBU\DATA\NTPROFILE\DESKTOP\HAPTICSHD SELF CONTAINED\HAPTICSHD\HAPTICLIBS\HL.LIB
\\UEAHOME4\STUSCI3\XPY10YBU\DATA\NTPROFILE\DESKTOP\HAPTICSHD SELF CONTAINED\HAPTICSHD\HAPTICLIBS\HLU.LIB
\\UEAHOME4\STUSCI3\XPY10YBU\DATA\NTPROFILE\DESKTOP\HAPTICSHD SELF CONTAINED\HAPTICSHD\HAPTICLIBS\HAPTICMOUSE.LIB
\\UEAHOME4\STUSCI3\XPY10YBU\DATA\NTPROFILE\DESKTOP\HAPTICSHD SELF CONTAINED\HAPTICSHD\X64\DEBUG\FEMMODEL4.DLL.EMBED.MANIFEST.RES
\\UEAHOME4\STUSCI3\XPY10YBU\DATA\NTPROFILE\DESKTOP\HAPTICSHD SELF CONTAINED\HAPTICSHD\X64\DEBUG\DLLMETHODS.OBJ
\\UEAHOME4\STUSCI3\XPY10YBU\DATA\NTPROFILE\DESKTOP\HAPTICSHD SELF CONTAINED\HAPTICSHD\X64\DEBUG\OPENHAPTICS.OBJ
C:\WINDOWS\GLOBALIZATION\SORTING\SORTDEFAULT.NLS
C:\PROGRAM FILES (X86)\MICROSOFT VISUAL STUDIO 10.0\VC\LIB\AMD64\LIBCPMTD.LIB
C:\PROGRAM FILES (X86)\MICROSOFT SDKS\WINDOWS\V7.0A\LIB\X64\WINMM.LIB
C:\PROGRAM FILES (X86)\MICROSOFT VISUAL STUDIO 10.0\VC\LIB\AMD64\LIBCMTD.LIB
C:\PROGRAM FILES (X86)\MICROSOFT VISUAL STUDIO 10.0\VC\LIB\AMD64\OLDNAMES.LIB
C:\PROGRAM FILES (X86)\MICROSOFT SDKS\WINDOWS\V7.0A\LIB\X64\UUID.LIB
C:\PROGRAM FILES (X86)\MICROSOFT SDKS\WINDOWS\V7.0A\LIB\X64\KERNEL32.LIB
C:\WINDOWS\SYSTEM32\TZRES.DLL
C:\PROGRAM FILES (X86)\MICROSOFT VISUAL STUDIO 10.0\VC\BIN\X86_AMD64\1033\LINKUI.DLL
\\UEAHOME4\STUSCI3\XPY10YBU\DATA\NTPROFILE\DESKTOP\HAPTICSHD SELF CONTAINED\HAPTICSHD\X64\DEBUG\FEMMODEL4.EXP
\\UEAHOME4\STUSCI3\XPY10YBU\DATA\NTPROFILE\DESKTOP\HAPTICSHD SELF CONTAINED\HAPTICSHD\X64\DEBUG\FEMMODEL4.LIB
C:\PROGRAM FILES (X86)\MICROSOFT VISUAL STUDIO 10.0\VC\BIN\CVTRES.EXE
\\UEAHOME4\STUSCI3\XPY10YBU\DATA\NTPROFILE\DESKTOP\HAPTICSHD SELF CONTAINED\HAPTICSHD\X64\DEBUG\FEMMODEL4.DLL
C:\WINDOWS\SYSTEM32\RSAENH.DLL
\\UEAHOME4\STUSCI3\XPY10YBU\DATA\NTPROFILE\DESKTOP\HAPTICSHD SELF CONTAINED\HAPTICSHD\X64\DEBUG\FEMMODEL4.ILK
\\UEAHOME4\STUSCI3\XPY10YBU\DATA\NTPROFILE\DESKTOP\HAPTICSHD SELF CONTAINED\HAPTICSHD\X64\DEBUG\FEMMODEL4.PDB
C:\PROGRAM FILES (X86)\MICROSOFT VISUAL STUDIO 10.0\VC\BIN\X86_AMD64\LINK.EXE
