^\\UEAHOME4\STUSCI2\UYW10EAU\DATA\NTPROFILE\DESKTOP\MCOMP DLL\HAPTICSHD\DEBUG\DLLMETHODS.OBJ|\\UEAHOME4\STUSCI2\UYW10EAU\DATA\NTPROFILE\DESKTOP\MCOMP DLL\HAPTICSHD\DEBUG\FEMMODEL4.DLL.EMBED.MANIFEST.RES|\\UEAHOME4\STUSCI2\UYW10EAU\DATA\NTPROFILE\DESKTOP\MCOMP DLL\HAPTICSHD\DEBUG\OPENHAPTICS.OBJ
/ERRORREPORT:PROMPT /OUT:"Debug\femModel4.dll" /INCREMENTAL /NOLOGO /LIBPATH:hapticLibs opengl32.lib glu32.lib glut32.lib glui32.lib hd.lib hdu.lib hl.lib hlu.lib HapticMouse.lib /MANIFEST /ManifestFile:"Debug\femModel4.dll.intermediate.manifest" /MANIFESTUAC:"level='asInvoker' uiAccess='false'" /DEBUG /PDB:"Debug\femModel4.pdb" /SUBSYSTEM:CONSOLE /TLBID:1 /DYNAMICBASE:NO /IMPLIB:"Debug\femModel4.lib" /MACHINE:X86 /DLL Debug\femModel4.dll.embed.manifest.res
Debug\DLLMethods.obj
Debug\OpenHaptics.obj /libpath:"C:\Program Files\SensAble\GHOST\v4.0\lib" /libpath:"C:\Program Files\SensAble\GHOST\v4.0\external\glut" 
