^C:\USERS\SAM\DOCUMENTS\VISUAL STUDIO 2012\PROJECTS\MCOMP WITH TRACKBALL\ARCBALL.CPP|C:\USERS\SAM\DOCUMENTS\VISUAL STUDIO 2012\PROJECTS\MCOMP WITH TRACKBALL\BASICOPENGLTEMPLATE.CPP|C:\USERS\SAM\DOCUMENTS\VISUAL STUDIO 2012\PROJECTS\MCOMP WITH TRACKBALL\CONSOLE.CPP|C:\USERS\SAM\DOCUMENTS\VISUAL STUDIO 2012\PROJECTS\MCOMP WITH TRACKBALL\MATHUTILITIES\MATRIX2D.CPP|C:\USERS\SAM\DOCUMENTS\VISUAL STUDIO 2012\PROJECTS\MCOMP WITH TRACKBALL\MATHUTILITIES\QUATERNION.CPP|C:\USERS\SAM\DOCUMENTS\VISUAL STUDIO 2012\PROJECTS\MCOMP WITH TRACKBALL\MATHUTILITIES\VECTOR3D.CPP|C:\USERS\SAM\DOCUMENTS\VISUAL STUDIO 2012\PROJECTS\MCOMP WITH TRACKBALL\PDBLOADING\DATATABLE.CPP|C:\USERS\SAM\DOCUMENTS\VISUAL STUDIO 2012\PROJECTS\MCOMP WITH TRACKBALL\PDBLOADING\FILEHANDLE.CPP|C:\USERS\SAM\DOCUMENTS\VISUAL STUDIO 2012\PROJECTS\MCOMP WITH TRACKBALL\PROTEINRENDERING\ATOMS.CPP|C:\USERS\SAM\DOCUMENTS\VISUAL STUDIO 2012\PROJECTS\MCOMP WITH TRACKBALL\PROTEINRENDERING\BACKBONE.CPP
C:\USERS\SAM\DOCUMENTS\VISUAL STUDIO 2012\PROJECTS\MCOMP WITH TRACKBALL\RELEASE\BACKBONE.OBJ
C:\USERS\SAM\DOCUMENTS\VISUAL STUDIO 2012\PROJECTS\MCOMP WITH TRACKBALL\RELEASE\ATOMS.OBJ
C:\USERS\SAM\DOCUMENTS\VISUAL STUDIO 2012\PROJECTS\MCOMP WITH TRACKBALL\RELEASE\FILEHANDLE.OBJ
C:\USERS\SAM\DOCUMENTS\VISUAL STUDIO 2012\PROJECTS\MCOMP WITH TRACKBALL\RELEASE\DATATABLE.OBJ
C:\USERS\SAM\DOCUMENTS\VISUAL STUDIO 2012\PROJECTS\MCOMP WITH TRACKBALL\RELEASE\VECTOR3D.OBJ
C:\USERS\SAM\DOCUMENTS\VISUAL STUDIO 2012\PROJECTS\MCOMP WITH TRACKBALL\RELEASE\QUATERNION.OBJ
C:\USERS\SAM\DOCUMENTS\VISUAL STUDIO 2012\PROJECTS\MCOMP WITH TRACKBALL\RELEASE\MATRIX2D.OBJ
C:\USERS\SAM\DOCUMENTS\VISUAL STUDIO 2012\PROJECTS\MCOMP WITH TRACKBALL\RELEASE\CONSOLE.OBJ
C:\USERS\SAM\DOCUMENTS\VISUAL STUDIO 2012\PROJECTS\MCOMP WITH TRACKBALL\RELEASE\BASICOPENGLTEMPLATE.OBJ
C:\USERS\SAM\DOCUMENTS\VISUAL STUDIO 2012\PROJECTS\MCOMP WITH TRACKBALL\RELEASE\ARCBALL.OBJ
^C:\USERS\SAM\DOCUMENTS\VISUAL STUDIO 2012\PROJECTS\MCOMP WITH TRACKBALL\ARCBALL.CPP
C:\USERS\SAM\DOCUMENTS\VISUAL STUDIO 2012\PROJECTS\MCOMP WITH TRACKBALL\RELEASE\VC110.PDB
^C:\USERS\SAM\DOCUMENTS\VISUAL STUDIO 2012\PROJECTS\MCOMP WITH TRACKBALL\CONSOLE.CPP
C:\USERS\SAM\DOCUMENTS\VISUAL STUDIO 2012\PROJECTS\MCOMP WITH TRACKBALL\RELEASE\VC110.PDB
^C:\USERS\SAM\DOCUMENTS\VISUAL STUDIO 2012\PROJECTS\MCOMP WITH TRACKBALL\MATHUTILITIES\MATRIX2D.CPP
C:\USERS\SAM\DOCUMENTS\VISUAL STUDIO 2012\PROJECTS\MCOMP WITH TRACKBALL\RELEASE\VC110.PDB
^C:\USERS\SAM\DOCUMENTS\VISUAL STUDIO 2012\PROJECTS\MCOMP WITH TRACKBALL\MATHUTILITIES\QUATERNION.CPP
C:\USERS\SAM\DOCUMENTS\VISUAL STUDIO 2012\PROJECTS\MCOMP WITH TRACKBALL\RELEASE\VC110.PDB
^C:\USERS\SAM\DOCUMENTS\VISUAL STUDIO 2012\PROJECTS\MCOMP WITH TRACKBALL\MATHUTILITIES\VECTOR3D.CPP
C:\USERS\SAM\DOCUMENTS\VISUAL STUDIO 2012\PROJECTS\MCOMP WITH TRACKBALL\RELEASE\VC110.PDB
^C:\USERS\SAM\DOCUMENTS\VISUAL STUDIO 2012\PROJECTS\MCOMP WITH TRACKBALL\PDBLOADING\DATATABLE.CPP
C:\USERS\SAM\DOCUMENTS\VISUAL STUDIO 2012\PROJECTS\MCOMP WITH TRACKBALL\RELEASE\VC110.PDB
^C:\USERS\SAM\DOCUMENTS\VISUAL STUDIO 2012\PROJECTS\MCOMP WITH TRACKBALL\PDBLOADING\FILEHANDLE.CPP
C:\USERS\SAM\DOCUMENTS\VISUAL STUDIO 2012\PROJECTS\MCOMP WITH TRACKBALL\RELEASE\VC110.PDB
^C:\USERS\SAM\DOCUMENTS\VISUAL STUDIO 2012\PROJECTS\MCOMP WITH TRACKBALL\PROTEINRENDERING\ATOMS.CPP
C:\USERS\SAM\DOCUMENTS\VISUAL STUDIO 2012\PROJECTS\MCOMP WITH TRACKBALL\RELEASE\VC110.PDB
^C:\USERS\SAM\DOCUMENTS\VISUAL STUDIO 2012\PROJECTS\MCOMP WITH TRACKBALL\PROTEINRENDERING\BACKBONE.CPP
C:\USERS\SAM\DOCUMENTS\VISUAL STUDIO 2012\PROJECTS\MCOMP WITH TRACKBALL\RELEASE\VC110.PDB
^C:\USERS\SAM\DOCUMENTS\VISUAL STUDIO 2012\PROJECTS\MCOMP WITH TRACKBALL\BASICOPENGLTEMPLATE.CPP
C:\USERS\SAM\DOCUMENTS\VISUAL STUDIO 2012\PROJECTS\MCOMP WITH TRACKBALL\RELEASE\BASICOPENGLTEMPLATE.OBJ
C:\USERS\SAM\DOCUMENTS\VISUAL STUDIO 2012\PROJECTS\MCOMP WITH TRACKBALL\RELEASE\VC110.PDB
^C:\USERS\SAM\DOCUMENTS\VISUAL STUDIO 2012\PROJECTS\MCOMP WITH UNPROJECT\ARCBALL.CPP|C:\USERS\SAM\DOCUMENTS\VISUAL STUDIO 2012\PROJECTS\MCOMP WITH UNPROJECT\BASICOPENGLTEMPLATE.CPP|C:\USERS\SAM\DOCUMENTS\VISUAL STUDIO 2012\PROJECTS\MCOMP WITH UNPROJECT\CONSOLE.CPP|C:\USERS\SAM\DOCUMENTS\VISUAL STUDIO 2012\PROJECTS\MCOMP WITH UNPROJECT\MATHUTILITIES\MATRIX2D.CPP|C:\USERS\SAM\DOCUMENTS\VISUAL STUDIO 2012\PROJECTS\MCOMP WITH UNPROJECT\MATHUTILITIES\QUATERNION.CPP|C:\USERS\SAM\DOCUMENTS\VISUAL STUDIO 2012\PROJECTS\MCOMP WITH UNPROJECT\MATHUTILITIES\VECTOR3D.CPP|C:\USERS\SAM\DOCUMENTS\VISUAL STUDIO 2012\PROJECTS\MCOMP WITH UNPROJECT\PDBLOADING\DATATABLE.CPP|C:\USERS\SAM\DOCUMENTS\VISUAL STUDIO 2012\PROJECTS\MCOMP WITH UNPROJECT\PDBLOADING\FILEHANDLE.CPP|C:\USERS\SAM\DOCUMENTS\VISUAL STUDIO 2012\PROJECTS\MCOMP WITH UNPROJECT\PROTEINRENDERING\ATOMS.CPP|C:\USERS\SAM\DOCUMENTS\VISUAL STUDIO 2012\PROJECTS\MCOMP WITH UNPROJECT\PROTEINRENDERING\BACKBONE.CPP
C:\USERS\SAM\DOCUMENTS\VISUAL STUDIO 2012\PROJECTS\MCOMP WITH UNPROJECT\RELEASE\BACKBONE.OBJ
C:\USERS\SAM\DOCUMENTS\VISUAL STUDIO 2012\PROJECTS\MCOMP WITH UNPROJECT\RELEASE\ATOMS.OBJ
C:\USERS\SAM\DOCUMENTS\VISUAL STUDIO 2012\PROJECTS\MCOMP WITH UNPROJECT\RELEASE\FILEHANDLE.OBJ
C:\USERS\SAM\DOCUMENTS\VISUAL STUDIO 2012\PROJECTS\MCOMP WITH UNPROJECT\RELEASE\DATATABLE.OBJ
C:\USERS\SAM\DOCUMENTS\VISUAL STUDIO 2012\PROJECTS\MCOMP WITH UNPROJECT\RELEASE\VECTOR3D.OBJ
C:\USERS\SAM\DOCUMENTS\VISUAL STUDIO 2012\PROJECTS\MCOMP WITH UNPROJECT\RELEASE\QUATERNION.OBJ
C:\USERS\SAM\DOCUMENTS\VISUAL STUDIO 2012\PROJECTS\MCOMP WITH UNPROJECT\RELEASE\MATRIX2D.OBJ
C:\USERS\SAM\DOCUMENTS\VISUAL STUDIO 2012\PROJECTS\MCOMP WITH UNPROJECT\RELEASE\CONSOLE.OBJ
C:\USERS\SAM\DOCUMENTS\VISUAL STUDIO 2012\PROJECTS\MCOMP WITH UNPROJECT\RELEASE\ARCBALL.OBJ
^C:\USERS\SAM\DOCUMENTS\VISUAL STUDIO 2012\PROJECTS\MCOMP WITH UNPROJECT\ARCBALL.CPP
C:\USERS\SAM\DOCUMENTS\VISUAL STUDIO 2012\PROJECTS\MCOMP WITH UNPROJECT\RELEASE\ARCBALL.OBJ
^C:\USERS\SAM\DOCUMENTS\VISUAL STUDIO 2012\PROJECTS\MCOMP WITH UNPROJECT\CONSOLE.CPP
C:\USERS\SAM\DOCUMENTS\VISUAL STUDIO 2012\PROJECTS\MCOMP WITH UNPROJECT\RELEASE\CONSOLE.OBJ
^C:\USERS\SAM\DOCUMENTS\VISUAL STUDIO 2012\PROJECTS\MCOMP WITH UNPROJECT\MATHUTILITIES\MATRIX2D.CPP
C:\USERS\SAM\DOCUMENTS\VISUAL STUDIO 2012\PROJECTS\MCOMP WITH UNPROJECT\RELEASE\MATRIX2D.OBJ
^C:\USERS\SAM\DOCUMENTS\VISUAL STUDIO 2012\PROJECTS\MCOMP WITH UNPROJECT\MATHUTILITIES\QUATERNION.CPP
C:\USERS\SAM\DOCUMENTS\VISUAL STUDIO 2012\PROJECTS\MCOMP WITH UNPROJECT\RELEASE\QUATERNION.OBJ
^C:\USERS\SAM\DOCUMENTS\VISUAL STUDIO 2012\PROJECTS\MCOMP WITH UNPROJECT\MATHUTILITIES\VECTOR3D.CPP
C:\USERS\SAM\DOCUMENTS\VISUAL STUDIO 2012\PROJECTS\MCOMP WITH UNPROJECT\RELEASE\VECTOR3D.OBJ
^C:\USERS\SAM\DOCUMENTS\VISUAL STUDIO 2012\PROJECTS\MCOMP WITH UNPROJECT\PDBLOADING\DATATABLE.CPP
C:\USERS\SAM\DOCUMENTS\VISUAL STUDIO 2012\PROJECTS\MCOMP WITH UNPROJECT\RELEASE\DATATABLE.OBJ
^C:\USERS\SAM\DOCUMENTS\VISUAL STUDIO 2012\PROJECTS\MCOMP WITH UNPROJECT\PDBLOADING\FILEHANDLE.CPP
C:\USERS\SAM\DOCUMENTS\VISUAL STUDIO 2012\PROJECTS\MCOMP WITH UNPROJECT\RELEASE\FILEHANDLE.OBJ
^C:\USERS\SAM\DOCUMENTS\VISUAL STUDIO 2012\PROJECTS\MCOMP WITH UNPROJECT\PROTEINRENDERING\ATOMS.CPP
C:\USERS\SAM\DOCUMENTS\VISUAL STUDIO 2012\PROJECTS\MCOMP WITH UNPROJECT\RELEASE\ATOMS.OBJ
^C:\USERS\SAM\DOCUMENTS\VISUAL STUDIO 2012\PROJECTS\MCOMP WITH UNPROJECT\PROTEINRENDERING\BACKBONE.CPP
C:\USERS\SAM\DOCUMENTS\VISUAL STUDIO 2012\PROJECTS\MCOMP WITH UNPROJECT\RELEASE\BACKBONE.OBJ
^C:\USERS\SAM\DOCUMENTS\VISUAL STUDIO 2012\PROJECTS\MCOMP WITH UNPROJECT\BASICOPENGLTEMPLATE.CPP
C:\USERS\SAM\DOCUMENTS\VISUAL STUDIO 2012\PROJECTS\MCOMP WITH UNPROJECT\RELEASE\BASICOPENGLTEMPLATE.OBJ
C:\USERS\SAM\DOCUMENTS\VISUAL STUDIO 2012\PROJECTS\MCOMP WITH UNPROJECT\RELEASE\VC110.PDB
^C:\USERS\SAM\DOCUMENTS\YEAR 4\MCOMP PROJECT\PROGRAM\MCOMP WITH TRANSLATION AND ROTATION\ARCBALL.CPP|C:\USERS\SAM\DOCUMENTS\YEAR 4\MCOMP PROJECT\PROGRAM\MCOMP WITH TRANSLATION AND ROTATION\BASICOPENGLTEMPLATE.CPP|C:\USERS\SAM\DOCUMENTS\YEAR 4\MCOMP PROJECT\PROGRAM\MCOMP WITH TRANSLATION AND ROTATION\CONSOLE.CPP|C:\USERS\SAM\DOCUMENTS\YEAR 4\MCOMP PROJECT\PROGRAM\MCOMP WITH TRANSLATION AND ROTATION\MATHUTILITIES\MATRIX2D.CPP|C:\USERS\SAM\DOCUMENTS\YEAR 4\MCOMP PROJECT\PROGRAM\MCOMP WITH TRANSLATION AND ROTATION\MATHUTILITIES\QUATERNION.CPP|C:\USERS\SAM\DOCUMENTS\YEAR 4\MCOMP PROJECT\PROGRAM\MCOMP WITH TRANSLATION AND ROTATION\MATHUTILITIES\VECTOR3D.CPP|C:\USERS\SAM\DOCUMENTS\YEAR 4\MCOMP PROJECT\PROGRAM\MCOMP WITH TRANSLATION AND ROTATION\PDBLOADING\DATATABLE.CPP|C:\USERS\SAM\DOCUMENTS\YEAR 4\MCOMP PROJECT\PROGRAM\MCOMP WITH TRANSLATION AND ROTATION\PDBLOADING\FILEHANDLE.CPP|C:\USERS\SAM\DOCUMENTS\YEAR 4\MCOMP PROJECT\PROGRAM\MCOMP WITH TRANSLATION AND ROTATION\PROTEINRENDERING\ATOMS.CPP|C:\USERS\SAM\DOCUMENTS\YEAR 4\MCOMP PROJECT\PROGRAM\MCOMP WITH TRANSLATION AND ROTATION\PROTEINRENDERING\BACKBONE.CPP
C:\USERS\SAM\DOCUMENTS\YEAR 4\MCOMP PROJECT\PROGRAM\MCOMP WITH TRANSLATION AND ROTATION\RELEASE\BACKBONE.OBJ
C:\USERS\SAM\DOCUMENTS\YEAR 4\MCOMP PROJECT\PROGRAM\MCOMP WITH TRANSLATION AND ROTATION\RELEASE\ATOMS.OBJ
C:\USERS\SAM\DOCUMENTS\YEAR 4\MCOMP PROJECT\PROGRAM\MCOMP WITH TRANSLATION AND ROTATION\RELEASE\FILEHANDLE.OBJ
C:\USERS\SAM\DOCUMENTS\YEAR 4\MCOMP PROJECT\PROGRAM\MCOMP WITH TRANSLATION AND ROTATION\RELEASE\DATATABLE.OBJ
C:\USERS\SAM\DOCUMENTS\YEAR 4\MCOMP PROJECT\PROGRAM\MCOMP WITH TRANSLATION AND ROTATION\RELEASE\VECTOR3D.OBJ
C:\USERS\SAM\DOCUMENTS\YEAR 4\MCOMP PROJECT\PROGRAM\MCOMP WITH TRANSLATION AND ROTATION\RELEASE\QUATERNION.OBJ
C:\USERS\SAM\DOCUMENTS\YEAR 4\MCOMP PROJECT\PROGRAM\MCOMP WITH TRANSLATION AND ROTATION\RELEASE\MATRIX2D.OBJ
C:\USERS\SAM\DOCUMENTS\YEAR 4\MCOMP PROJECT\PROGRAM\MCOMP WITH TRANSLATION AND ROTATION\RELEASE\CONSOLE.OBJ
C:\USERS\SAM\DOCUMENTS\YEAR 4\MCOMP PROJECT\PROGRAM\MCOMP WITH TRANSLATION AND ROTATION\RELEASE\BASICOPENGLTEMPLATE.OBJ
C:\USERS\SAM\DOCUMENTS\YEAR 4\MCOMP PROJECT\PROGRAM\MCOMP WITH TRANSLATION AND ROTATION\RELEASE\ARCBALL.OBJ
^C:\USERS\SAM\DOCUMENTS\YEAR 4\MCOMP PROJECT\PROGRAM\MCOMP WITH TRANSLATION AND ROTATION\ARCBALL.CPP
C:\USERS\SAM\DOCUMENTS\YEAR 4\MCOMP PROJECT\PROGRAM\MCOMP WITH TRANSLATION AND ROTATION\RELEASE\VC110.PDB
^C:\USERS\SAM\DOCUMENTS\YEAR 4\MCOMP PROJECT\PROGRAM\MCOMP WITH TRANSLATION AND ROTATION\CONSOLE.CPP
C:\USERS\SAM\DOCUMENTS\YEAR 4\MCOMP PROJECT\PROGRAM\MCOMP WITH TRANSLATION AND ROTATION\RELEASE\VC110.PDB
^C:\USERS\SAM\DOCUMENTS\YEAR 4\MCOMP PROJECT\PROGRAM\MCOMP WITH TRANSLATION AND ROTATION\MATHUTILITIES\MATRIX2D.CPP
C:\USERS\SAM\DOCUMENTS\YEAR 4\MCOMP PROJECT\PROGRAM\MCOMP WITH TRANSLATION AND ROTATION\RELEASE\VC110.PDB
^C:\USERS\SAM\DOCUMENTS\YEAR 4\MCOMP PROJECT\PROGRAM\MCOMP WITH TRANSLATION AND ROTATION\MATHUTILITIES\QUATERNION.CPP
C:\USERS\SAM\DOCUMENTS\YEAR 4\MCOMP PROJECT\PROGRAM\MCOMP WITH TRANSLATION AND ROTATION\RELEASE\VC110.PDB
^C:\USERS\SAM\DOCUMENTS\YEAR 4\MCOMP PROJECT\PROGRAM\MCOMP WITH TRANSLATION AND ROTATION\MATHUTILITIES\VECTOR3D.CPP
C:\USERS\SAM\DOCUMENTS\YEAR 4\MCOMP PROJECT\PROGRAM\MCOMP WITH TRANSLATION AND ROTATION\RELEASE\VC110.PDB
^C:\USERS\SAM\DOCUMENTS\YEAR 4\MCOMP PROJECT\PROGRAM\MCOMP WITH TRANSLATION AND ROTATION\PDBLOADING\DATATABLE.CPP
C:\USERS\SAM\DOCUMENTS\YEAR 4\MCOMP PROJECT\PROGRAM\MCOMP WITH TRANSLATION AND ROTATION\RELEASE\VC110.PDB
^C:\USERS\SAM\DOCUMENTS\YEAR 4\MCOMP PROJECT\PROGRAM\MCOMP WITH TRANSLATION AND ROTATION\PDBLOADING\FILEHANDLE.CPP
C:\USERS\SAM\DOCUMENTS\YEAR 4\MCOMP PROJECT\PROGRAM\MCOMP WITH TRANSLATION AND ROTATION\RELEASE\VC110.PDB
^C:\USERS\SAM\DOCUMENTS\YEAR 4\MCOMP PROJECT\PROGRAM\MCOMP WITH TRANSLATION AND ROTATION\PROTEINRENDERING\ATOMS.CPP
C:\USERS\SAM\DOCUMENTS\YEAR 4\MCOMP PROJECT\PROGRAM\MCOMP WITH TRANSLATION AND ROTATION\RELEASE\VC110.PDB
^C:\USERS\SAM\DOCUMENTS\YEAR 4\MCOMP PROJECT\PROGRAM\MCOMP WITH TRANSLATION AND ROTATION\PROTEINRENDERING\BACKBONE.CPP
C:\USERS\SAM\DOCUMENTS\YEAR 4\MCOMP PROJECT\PROGRAM\MCOMP WITH TRANSLATION AND ROTATION\RELEASE\VC110.PDB
^C:\USERS\SAM\DOCUMENTS\YEAR 4\MCOMP PROJECT\PROGRAM\MCOMP WITH TRANSLATION AND ROTATION\BASICOPENGLTEMPLATE.CPP
C:\USERS\SAM\DOCUMENTS\YEAR 4\MCOMP PROJECT\PROGRAM\MCOMP WITH TRANSLATION AND ROTATION\RELEASE\BASICOPENGLTEMPLATE.OBJ
C:\USERS\SAM\DOCUMENTS\YEAR 4\MCOMP PROJECT\PROGRAM\MCOMP WITH TRANSLATION AND ROTATION\RELEASE\VC110.PDB
