^\\UEAHOME4\STUSCI2\UYW10EAU\DATA\NTPROFILE\DESKTOP\MCOMP DLL\HAPTICSHD\DEBUG\DLLMETHODS.OBJ|\\UEAHOME4\STUSCI2\UYW10EAU\DATA\NTPROFILE\DESKTOP\MCOMP DLL\HAPTICSHD\DEBUG\FEMMODEL4.DLL.EMBED.MANIFEST.RES|\\UEAHOME4\STUSCI2\UYW10EAU\DATA\NTPROFILE\DESKTOP\MCOMP DLL\HAPTICSHD\DEBUG\OPENHAPTICS.OBJ
C:\PROGRAM FILES (X86)\MICROSOFT SDKS\WINDOWS\V7.0A\LIB\OPENGL32.LIB
C:\PROGRAM FILES (X86)\MICROSOFT SDKS\WINDOWS\V7.0A\LIB\GLU32.LIB
\\UEAHOME4\STUSCI2\UYW10EAU\DATA\NTPROFILE\DESKTOP\MCOMP DLL\HAPTICSHD\HAPTICLIBS\GLUT32.LIB
\\UEAHOME4\STUSCI2\UYW10EAU\DATA\NTPROFILE\DESKTOP\MCOMP DLL\HAPTICSHD\HAPTICLIBS\GLUI32.LIB
\\UEAHOME4\STUSCI2\UYW10EAU\DATA\NTPROFILE\DESKTOP\MCOMP DLL\HAPTICSHD\HAPTICLIBS\HD.LIB
\\UEAHOME4\STUSCI2\UYW10EAU\DATA\NTPROFILE\DESKTOP\MCOMP DLL\HAPTICSHD\HAPTICLIBS\HDU.LIB
\\UEAHOME4\STUSCI2\UYW10EAU\DATA\NTPROFILE\DESKTOP\MCOMP DLL\HAPTICSHD\HAPTICLIBS\HL.LIB
\\UEAHOME4\STUSCI2\UYW10EAU\DATA\NTPROFILE\DESKTOP\MCOMP DLL\HAPTICSHD\HAPTICLIBS\HLU.LIB
\\UEAHOME4\STUSCI2\UYW10EAU\DATA\NTPROFILE\DESKTOP\MCOMP DLL\HAPTICSHD\HAPTICLIBS\HAPTICMOUSE.LIB
\\UEAHOME4\STUSCI2\UYW10EAU\DATA\NTPROFILE\DESKTOP\MCOMP DLL\HAPTICSHD\DEBUG\FEMMODEL4.DLL.EMBED.MANIFEST.RES
\\UEAHOME4\STUSCI2\UYW10EAU\DATA\NTPROFILE\DESKTOP\MCOMP DLL\HAPTICSHD\DEBUG\DLLMETHODS.OBJ
\\UEAHOME4\STUSCI2\UYW10EAU\DATA\NTPROFILE\DESKTOP\MCOMP DLL\HAPTICSHD\DEBUG\OPENHAPTICS.OBJ
C:\WINDOWS\SYSTEM32\TZRES.DLL
\\UEAHOME4\STUSCI2\UYW10EAU\DATA\NTPROFILE\DESKTOP\MCOMP DLL\HAPTICSHD\DEBUG\FEMMODEL4.ILK
\\UEAHOME4\STUSCI2\UYW10EAU\DATA\NTPROFILE\DESKTOP\MCOMP DLL\HAPTICSHD\DEBUG\FEMMODEL4.DLL
\\UEAHOME4\STUSCI2\UYW10EAU\DATA\NTPROFILE\DESKTOP\MCOMP DLL\HAPTICSHD\DEBUG\FEMMODEL4.PDB
C:\WINDOWS\GLOBALIZATION\SORTING\SORTDEFAULT.NLS
\\UEAHOME4\STUSCI2\UYW10EAU\DATA\NTPROFILE\DESKTOP\MCOMP DLL\HAPTICSHD\DEBUG\FEMMODEL4.EXP
\\UEAHOME4\STUSCI2\UYW10EAU\DATA\NTPROFILE\DESKTOP\MCOMP DLL\HAPTICSHD\DEBUG\FEMMODEL4.LIB
C:\PROGRAM FILES (X86)\MICROSOFT VISUAL STUDIO 10.0\VC\LIB\LIBCPMTD.LIB
C:\PROGRAM FILES (X86)\MICROSOFT SDKS\WINDOWS\V7.0A\LIB\WINMM.LIB
C:\PROGRAM FILES (X86)\MICROSOFT VISUAL STUDIO 10.0\VC\LIB\LIBCMTD.LIB
C:\PROGRAM FILES (X86)\MICROSOFT VISUAL STUDIO 10.0\VC\LIB\OLDNAMES.LIB
C:\PROGRAM FILES (X86)\MICROSOFT SDKS\WINDOWS\V7.0A\LIB\UUID.LIB
C:\PROGRAM FILES (X86)\MICROSOFT SDKS\WINDOWS\V7.0A\LIB\KERNEL32.LIB
C:\PROGRAM FILES (X86)\MICROSOFT VISUAL STUDIO 10.0\VC\BIN\CVTRES.EXE
C:\PROGRAM FILES (X86)\MICROSOFT VISUAL STUDIO 10.0\VC\BIN\LINK.EXE
C:\WINDOWS\SYSTEM32\RSAENH.DLL
C:\PROGRAM FILES (X86)\MICROSOFT VISUAL STUDIO 10.0\VC\BIN\1033\LINKUI.DLL
