^C:\SOURCE REPOSITORY\SOURCETREE\MCOMP PROJECT\DLLS\ATOM DATA DLL\ATOMSOURCE.CPP
/c /I"C:\Program Files (x86)\Boost\boost_1_55_0\boost" /Zi /nologo /W3 /WX- /O2 /Oi /Oy- /GL /D WIN32 /D NDEBUG /D _WINDOWS /D _WINDLL /D _MBCS /Gm- /EHsc /MT /GS /Gy /fp:precise /Zc:wchar_t /Zc:forScope /Fo"RELEASE\\" /Fd"RELEASE\VC120.PDB" /Gd /TP /analyze- C:\SOURCE REPOSITORY\SOURCETREE\MCOMP PROJECT\DLLS\ATOM DATA DLL\ATOMSOURCE.CPP
^C:\SOURCE REPOSITORY\SOURCETREE\MCOMP PROJECT\DLLS\ATOM DATA DLL\GRIDSOURCE.CPP
/c /I"C:\Program Files (x86)\Boost\boost_1_55_0\boost" /Zi /nologo /W3 /WX- /O2 /Oi /Oy- /GL /D WIN32 /D NDEBUG /D _WINDOWS /D _WINDLL /D _MBCS /Gm- /EHsc /MT /GS /Gy /fp:precise /Zc:wchar_t /Zc:forScope /Fo"RELEASE\\" /Fd"RELEASE\VC120.PDB" /Gd /TP /analyze- C:\SOURCE REPOSITORY\SOURCETREE\MCOMP PROJECT\DLLS\ATOM DATA DLL\GRIDSOURCE.CPP
^C:\SOURCE REPOSITORY\SOURCETREE\MCOMP PROJECT\DLLS\ATOM DATA DLL\MATHUTILITIES\MATRIX2D.CPP
/c /I"C:\Program Files (x86)\Boost\boost_1_55_0\boost" /Zi /nologo /W3 /WX- /O2 /Oi /Oy- /GL /D WIN32 /D NDEBUG /D _WINDOWS /D _WINDLL /D _MBCS /Gm- /EHsc /MT /GS /Gy /fp:precise /Zc:wchar_t /Zc:forScope /Fo"RELEASE\\" /Fd"RELEASE\VC120.PDB" /Gd /TP /analyze- C:\SOURCE REPOSITORY\SOURCETREE\MCOMP PROJECT\DLLS\ATOM DATA DLL\MATHUTILITIES\MATRIX2D.CPP
^C:\SOURCE REPOSITORY\SOURCETREE\MCOMP PROJECT\DLLS\ATOM DATA DLL\MATHUTILITIES\QUATERNION.CPP
/c /I"C:\Program Files (x86)\Boost\boost_1_55_0\boost" /Zi /nologo /W3 /WX- /O2 /Oi /Oy- /GL /D WIN32 /D NDEBUG /D _WINDOWS /D _WINDLL /D _MBCS /Gm- /EHsc /MT /GS /Gy /fp:precise /Zc:wchar_t /Zc:forScope /Fo"RELEASE\\" /Fd"RELEASE\VC120.PDB" /Gd /TP /analyze- C:\SOURCE REPOSITORY\SOURCETREE\MCOMP PROJECT\DLLS\ATOM DATA DLL\MATHUTILITIES\QUATERNION.CPP
^C:\SOURCE REPOSITORY\SOURCETREE\MCOMP PROJECT\DLLS\ATOM DATA DLL\MATHUTILITIES\VECTOR3D.CPP
/c /I"C:\Program Files (x86)\Boost\boost_1_55_0\boost" /Zi /nologo /W3 /WX- /O2 /Oi /Oy- /GL /D WIN32 /D NDEBUG /D _WINDOWS /D _WINDLL /D _MBCS /Gm- /EHsc /MT /GS /Gy /fp:precise /Zc:wchar_t /Zc:forScope /Fo"RELEASE\\" /Fd"RELEASE\VC120.PDB" /Gd /TP /analyze- C:\SOURCE REPOSITORY\SOURCETREE\MCOMP PROJECT\DLLS\ATOM DATA DLL\MATHUTILITIES\VECTOR3D.CPP
^C:\SOURCE REPOSITORY\SOURCETREE\MCOMP PROJECT\DLLS\ATOM DATA DLL\PDBLOADING\DATATABLE.CPP
/c /I"C:\Program Files (x86)\Boost\boost_1_55_0\boost" /Zi /nologo /W3 /WX- /O2 /Oi /Oy- /GL /D WIN32 /D NDEBUG /D _WINDOWS /D _WINDLL /D _MBCS /Gm- /EHsc /MT /GS /Gy /fp:precise /Zc:wchar_t /Zc:forScope /Fo"RELEASE\\" /Fd"RELEASE\VC120.PDB" /Gd /TP /analyze- C:\SOURCE REPOSITORY\SOURCETREE\MCOMP PROJECT\DLLS\ATOM DATA DLL\PDBLOADING\DATATABLE.CPP
^C:\SOURCE REPOSITORY\SOURCETREE\MCOMP PROJECT\DLLS\ATOM DATA DLL\PDBLOADING\FILEHANDLE.CPP
/c /I"C:\Program Files (x86)\Boost\boost_1_55_0\boost" /Zi /nologo /W3 /WX- /O2 /Oi /Oy- /GL /D WIN32 /D NDEBUG /D _WINDOWS /D _WINDLL /D _MBCS /Gm- /EHsc /MT /GS /Gy /fp:precise /Zc:wchar_t /Zc:forScope /Fo"RELEASE\\" /Fd"RELEASE\VC120.PDB" /Gd /TP /analyze- C:\SOURCE REPOSITORY\SOURCETREE\MCOMP PROJECT\DLLS\ATOM DATA DLL\PDBLOADING\FILEHANDLE.CPP
^C:\SOURCE REPOSITORY\SOURCETREE\MCOMP PROJECT\DLLS\ATOM DATA DLL\PROTEINRENDERING\ATOMS.CPP
/c /I"C:\Program Files (x86)\Boost\boost_1_55_0\boost" /Zi /nologo /W3 /WX- /O2 /Oi /Oy- /GL /D WIN32 /D NDEBUG /D _WINDOWS /D _WINDLL /D _MBCS /Gm- /EHsc /MT /GS /Gy /fp:precise /Zc:wchar_t /Zc:forScope /Fo"RELEASE\\" /Fd"RELEASE\VC120.PDB" /Gd /TP /analyze- C:\SOURCE REPOSITORY\SOURCETREE\MCOMP PROJECT\DLLS\ATOM DATA DLL\PROTEINRENDERING\ATOMS.CPP
^C:\SOURCE REPOSITORY\SOURCETREE\MCOMP PROJECT\DLLS\ATOM DATA DLL\PROTEINRENDERING\BACKBONE.CPP
/c /I"C:\Program Files (x86)\Boost\boost_1_55_0\boost" /Zi /nologo /W3 /WX- /O2 /Oi /Oy- /GL /D WIN32 /D NDEBUG /D _WINDOWS /D _WINDLL /D _MBCS /Gm- /EHsc /MT /GS /Gy /fp:precise /Zc:wchar_t /Zc:forScope /Fo"RELEASE\\" /Fd"RELEASE\VC120.PDB" /Gd /TP /analyze- C:\SOURCE REPOSITORY\SOURCETREE\MCOMP PROJECT\DLLS\ATOM DATA DLL\PROTEINRENDERING\BACKBONE.CPP
^C:\USERS\TOM\DOCUMENTS\MCMPPROJECT\DLLS\ATOM DATA DLL\ATOMSOURCE.CPP
/c /IC:\Users\Tom\Downloads\boost_1_55_0\boost_1_55_0 /Zi /nologo /W3 /WX- /O2 /Oi /Oy- /GL /D WIN32 /D NDEBUG /D _WINDOWS /D _WINDLL /D _MBCS /Gm- /EHsc /MT /GS /Gy /fp:precise /Zc:wchar_t /Zc:forScope /Fo"RELEASE\\" /Fd"RELEASE\VC120.PDB" /Gd /TP /analyze- C:\USERS\TOM\DOCUMENTS\MCMPPROJECT\DLLS\ATOM DATA DLL\ATOMSOURCE.CPP
^C:\USERS\TOM\DOCUMENTS\MCMPPROJECT\DLLS\ATOM DATA DLL\GRIDSOURCE.CPP
/c /IC:\Users\Tom\Downloads\boost_1_55_0\boost_1_55_0 /Zi /nologo /W3 /WX- /O2 /Oi /Oy- /GL /D WIN32 /D NDEBUG /D _WINDOWS /D _WINDLL /D _MBCS /Gm- /EHsc /MT /GS /Gy /fp:precise /Zc:wchar_t /Zc:forScope /Fo"RELEASE\\" /Fd"RELEASE\VC120.PDB" /Gd /TP /analyze- C:\USERS\TOM\DOCUMENTS\MCMPPROJECT\DLLS\ATOM DATA DLL\GRIDSOURCE.CPP
^C:\USERS\TOM\DOCUMENTS\MCMPPROJECT\DLLS\ATOM DATA DLL\MATHUTILITIES\MATRIX2D.CPP
/c /IC:\Users\Tom\Downloads\boost_1_55_0\boost_1_55_0 /Zi /nologo /W3 /WX- /O2 /Oi /Oy- /GL /D WIN32 /D NDEBUG /D _WINDOWS /D _WINDLL /D _MBCS /Gm- /EHsc /MT /GS /Gy /fp:precise /Zc:wchar_t /Zc:forScope /Fo"RELEASE\\" /Fd"RELEASE\VC120.PDB" /Gd /TP /analyze- C:\USERS\TOM\DOCUMENTS\MCMPPROJECT\DLLS\ATOM DATA DLL\MATHUTILITIES\MATRIX2D.CPP
^C:\USERS\TOM\DOCUMENTS\MCMPPROJECT\DLLS\ATOM DATA DLL\MATHUTILITIES\QUATERNION.CPP
/c /IC:\Users\Tom\Downloads\boost_1_55_0\boost_1_55_0 /Zi /nologo /W3 /WX- /O2 /Oi /Oy- /GL /D WIN32 /D NDEBUG /D _WINDOWS /D _WINDLL /D _MBCS /Gm- /EHsc /MT /GS /Gy /fp:precise /Zc:wchar_t /Zc:forScope /Fo"RELEASE\\" /Fd"RELEASE\VC120.PDB" /Gd /TP /analyze- C:\USERS\TOM\DOCUMENTS\MCMPPROJECT\DLLS\ATOM DATA DLL\MATHUTILITIES\QUATERNION.CPP
^C:\USERS\TOM\DOCUMENTS\MCMPPROJECT\DLLS\ATOM DATA DLL\MATHUTILITIES\VECTOR3D.CPP
/c /IC:\Users\Tom\Downloads\boost_1_55_0\boost_1_55_0 /Zi /nologo /W3 /WX- /O2 /Oi /Oy- /GL /D WIN32 /D NDEBUG /D _WINDOWS /D _WINDLL /D _MBCS /Gm- /EHsc /MT /GS /Gy /fp:precise /Zc:wchar_t /Zc:forScope /Fo"RELEASE\\" /Fd"RELEASE\VC120.PDB" /Gd /TP /analyze- C:\USERS\TOM\DOCUMENTS\MCMPPROJECT\DLLS\ATOM DATA DLL\MATHUTILITIES\VECTOR3D.CPP
^C:\USERS\TOM\DOCUMENTS\MCMPPROJECT\DLLS\ATOM DATA DLL\PDBLOADING\DATATABLE.CPP
/c /IC:\Users\Tom\Downloads\boost_1_55_0\boost_1_55_0 /Zi /nologo /W3 /WX- /O2 /Oi /Oy- /GL /D WIN32 /D NDEBUG /D _WINDOWS /D _WINDLL /D _MBCS /Gm- /EHsc /MT /GS /Gy /fp:precise /Zc:wchar_t /Zc:forScope /Fo"RELEASE\\" /Fd"RELEASE\VC120.PDB" /Gd /TP /analyze- C:\USERS\TOM\DOCUMENTS\MCMPPROJECT\DLLS\ATOM DATA DLL\PDBLOADING\DATATABLE.CPP
^C:\USERS\TOM\DOCUMENTS\MCMPPROJECT\DLLS\ATOM DATA DLL\PDBLOADING\FILEHANDLE.CPP
/c /IC:\Users\Tom\Downloads\boost_1_55_0\boost_1_55_0 /Zi /nologo /W3 /WX- /O2 /Oi /Oy- /GL /D WIN32 /D NDEBUG /D _WINDOWS /D _WINDLL /D _MBCS /Gm- /EHsc /MT /GS /Gy /fp:precise /Zc:wchar_t /Zc:forScope /Fo"RELEASE\\" /Fd"RELEASE\VC120.PDB" /Gd /TP /analyze- C:\USERS\TOM\DOCUMENTS\MCMPPROJECT\DLLS\ATOM DATA DLL\PDBLOADING\FILEHANDLE.CPP
^C:\USERS\TOM\DOCUMENTS\MCMPPROJECT\DLLS\ATOM DATA DLL\PROTEINRENDERING\ATOMS.CPP
/c /IC:\Users\Tom\Downloads\boost_1_55_0\boost_1_55_0 /Zi /nologo /W3 /WX- /O2 /Oi /Oy- /GL /D WIN32 /D NDEBUG /D _WINDOWS /D _WINDLL /D _MBCS /Gm- /EHsc /MT /GS /Gy /fp:precise /Zc:wchar_t /Zc:forScope /Fo"RELEASE\\" /Fd"RELEASE\VC120.PDB" /Gd /TP /analyze- C:\USERS\TOM\DOCUMENTS\MCMPPROJECT\DLLS\ATOM DATA DLL\PROTEINRENDERING\ATOMS.CPP
^C:\USERS\TOM\DOCUMENTS\MCMPPROJECT\DLLS\ATOM DATA DLL\PROTEINRENDERING\BACKBONE.CPP
/c /IC:\Users\Tom\Downloads\boost_1_55_0\boost_1_55_0 /Zi /nologo /W3 /WX- /O2 /Oi /Oy- /GL /D WIN32 /D NDEBUG /D _WINDOWS /D _WINDLL /D _MBCS /Gm- /EHsc /MT /GS /Gy /fp:precise /Zc:wchar_t /Zc:forScope /Fo"RELEASE\\" /Fd"RELEASE\VC120.PDB" /Gd /TP /analyze- C:\USERS\TOM\DOCUMENTS\MCMPPROJECT\DLLS\ATOM DATA DLL\PROTEINRENDERING\BACKBONE.CPP
