^C:\USERS\TOM\DOCUMENTS\MCMPPROJECT\DLLS\ATOM DATA DLL\ATOMSOURCE.CPP|C:\USERS\TOM\DOCUMENTS\MCMPPROJECT\DLLS\ATOM DATA DLL\GRIDSOURCE.CPP|C:\USERS\TOM\DOCUMENTS\MCMPPROJECT\DLLS\ATOM DATA DLL\MATHUTILITIES\MATRIX2D.CPP|C:\USERS\TOM\DOCUMENTS\MCMPPROJECT\DLLS\ATOM DATA DLL\MATHUTILITIES\QUATERNION.CPP|C:\USERS\TOM\DOCUMENTS\MCMPPROJECT\DLLS\ATOM DATA DLL\MATHUTILITIES\VECTOR3D.CPP|C:\USERS\TOM\DOCUMENTS\MCMPPROJECT\DLLS\ATOM DATA DLL\PDBLOADING\DATATABLE.CPP|C:\USERS\TOM\DOCUMENTS\MCMPPROJECT\DLLS\ATOM DATA DLL\PDBLOADING\FILEHANDLE.CPP|C:\USERS\TOM\DOCUMENTS\MCMPPROJECT\DLLS\ATOM DATA DLL\PROTEINRENDERING\ATOMS.CPP|C:\USERS\TOM\DOCUMENTS\MCMPPROJECT\DLLS\ATOM DATA DLL\PROTEINRENDERING\BACKBONE.CPP
C:\USERS\TOM\DOCUMENTS\MCMPPROJECT\DLLS\ATOM DATA DLL\RELEASE\VC120.PDB
C:\USERS\TOM\DOCUMENTS\MCMPPROJECT\DLLS\ATOM DATA DLL\RELEASE\BACKBONE.OBJ
C:\USERS\TOM\DOCUMENTS\MCMPPROJECT\DLLS\ATOM DATA DLL\RELEASE\ATOMS.OBJ
C:\USERS\TOM\DOCUMENTS\MCMPPROJECT\DLLS\ATOM DATA DLL\RELEASE\FILEHANDLE.OBJ
C:\USERS\TOM\DOCUMENTS\MCMPPROJECT\DLLS\ATOM DATA DLL\RELEASE\DATATABLE.OBJ
C:\USERS\TOM\DOCUMENTS\MCMPPROJECT\DLLS\ATOM DATA DLL\RELEASE\VECTOR3D.OBJ
C:\USERS\TOM\DOCUMENTS\MCMPPROJECT\DLLS\ATOM DATA DLL\RELEASE\QUATERNION.OBJ
C:\USERS\TOM\DOCUMENTS\MCMPPROJECT\DLLS\ATOM DATA DLL\RELEASE\MATRIX2D.OBJ
C:\USERS\TOM\DOCUMENTS\MCMPPROJECT\DLLS\ATOM DATA DLL\RELEASE\GRIDSOURCE.OBJ
C:\USERS\TOM\DOCUMENTS\MCMPPROJECT\DLLS\ATOM DATA DLL\RELEASE\ATOMSOURCE.OBJ
^C:\USERS\TOM\DOCUMENTS\MCMPPROJECT\DLLS\ATOM DATA DLL\ATOMSOURCE.CPP
C:\USERS\TOM\DOCUMENTS\MCMPPROJECT\DLLS\ATOM DATA DLL\RELEASE\VC120.PDB
^C:\USERS\TOM\DOCUMENTS\MCMPPROJECT\DLLS\ATOM DATA DLL\GRIDSOURCE.CPP
C:\USERS\TOM\DOCUMENTS\MCMPPROJECT\DLLS\ATOM DATA DLL\RELEASE\VC120.PDB
^C:\USERS\TOM\DOCUMENTS\MCMPPROJECT\DLLS\ATOM DATA DLL\MATHUTILITIES\MATRIX2D.CPP
C:\USERS\TOM\DOCUMENTS\MCMPPROJECT\DLLS\ATOM DATA DLL\RELEASE\VC120.PDB
^C:\USERS\TOM\DOCUMENTS\MCMPPROJECT\DLLS\ATOM DATA DLL\MATHUTILITIES\QUATERNION.CPP
C:\USERS\TOM\DOCUMENTS\MCMPPROJECT\DLLS\ATOM DATA DLL\RELEASE\VC120.PDB
^C:\USERS\TOM\DOCUMENTS\MCMPPROJECT\DLLS\ATOM DATA DLL\MATHUTILITIES\VECTOR3D.CPP
C:\USERS\TOM\DOCUMENTS\MCMPPROJECT\DLLS\ATOM DATA DLL\RELEASE\VC120.PDB
^C:\USERS\TOM\DOCUMENTS\MCMPPROJECT\DLLS\ATOM DATA DLL\PDBLOADING\DATATABLE.CPP
C:\USERS\TOM\DOCUMENTS\MCMPPROJECT\DLLS\ATOM DATA DLL\RELEASE\VC120.PDB
^C:\USERS\TOM\DOCUMENTS\MCMPPROJECT\DLLS\ATOM DATA DLL\PDBLOADING\FILEHANDLE.CPP
C:\USERS\TOM\DOCUMENTS\MCMPPROJECT\DLLS\ATOM DATA DLL\RELEASE\VC120.PDB
^C:\USERS\TOM\DOCUMENTS\MCMPPROJECT\DLLS\ATOM DATA DLL\PROTEINRENDERING\ATOMS.CPP
C:\USERS\TOM\DOCUMENTS\MCMPPROJECT\DLLS\ATOM DATA DLL\RELEASE\VC120.PDB
^C:\USERS\TOM\DOCUMENTS\MCMPPROJECT\DLLS\ATOM DATA DLL\PROTEINRENDERING\BACKBONE.CPP
C:\USERS\TOM\DOCUMENTS\MCMPPROJECT\DLLS\ATOM DATA DLL\RELEASE\VC120.PDB
